{
	"extName": {
		"message": "CardBook",
		"description": "Name of the extension - do NOT translate"
	},
	
	"extDesc": {
		"message": "vCard adresboek",
		"description": "Description of the extension - do NOT translate"
	},
	
	"browserActionTitle": {
		"message": "CardBook",
		"description": "Ga naar CardBook-tab"
	}
}
